D:\New\my-app\src\main\java\com\cognizant\devops\Client.java
D:\New\my-app\src\main\java\com\cognizant\devops\App.java
D:\New\my-app\src\main\java\com\cognizant\devops\WageEmployee.java
D:\New\my-app\src\main\java\com\cognizant\devops\Employee.java
D:\New\my-app\src\main\java\com\cognizant\devops\SalesPerson.java
